\relax 
\providecommand\hyper@newdestlabel[2]{}
\providecommand\HyperFirstAtBeginDocument{\AtBeginDocument}
\HyperFirstAtBeginDocument{\ifx\hyper@anchor\@undefined
\global\let\oldcontentsline\contentsline
\gdef\contentsline#1#2#3#4{\oldcontentsline{#1}{#2}{#3}}
\global\let\oldnewlabel\newlabel
\gdef\newlabel#1#2{\newlabelxx{#1}#2}
\gdef\newlabelxx#1#2#3#4#5#6{\oldnewlabel{#1}{{#2}{#3}}}
\AtEndDocument{\ifx\hyper@anchor\@undefined
\let\contentsline\oldcontentsline
\let\newlabel\oldnewlabel
\fi}
\fi}
\global\let\hyper@last\relax 
\gdef\HyperFirstAtBeginDocument#1{#1}
\providecommand*\HyPL@Entry[1]{}
\HyPL@Entry{0<</S/D>>}
\selectlanguage *{english}
\@writefile{toc}{\selectlanguage *{english}}
\@writefile{lof}{\selectlanguage *{english}}
\@writefile{lot}{\selectlanguage *{english}}
\HyPL@Entry{2<</S/r>>}
\HyPL@Entry{4<</S/D>>}
\newlabel{index::doc}{{}{1}{}{section*.2}{}}
\@writefile{toc}{\contentsline {chapter}{\numberline {1}Minimal 3D Title Animation plugin}{3}{chapter.1}\protected@file@percent }
\@writefile{lof}{\addvspace {10\p@ }}
\@writefile{lot}{\addvspace {10\p@ }}
\newlabel{index:minimal-3d-title-animation-plugin}{{1}{3}{Minimal 3D Title Animation plugin}{chapter.1}{}}
\@writefile{toc}{\contentsline {chapter}{\numberline {2}Blender plugin version gesture}{11}{chapter.2}\protected@file@percent }
\@writefile{lof}{\addvspace {10\p@ }}
\@writefile{lot}{\addvspace {10\p@ }}
\newlabel{index:blender-plugin-version-gesture}{{2}{11}{Blender plugin version gesture}{chapter.2}{}}
\@writefile{toc}{\contentsline {chapter}{\numberline {3}Blender plugin engine gesture}{15}{chapter.3}\protected@file@percent }
\@writefile{lof}{\addvspace {10\p@ }}
\@writefile{lot}{\addvspace {10\p@ }}
\newlabel{index:blender-plugin-engine-gesture}{{3}{15}{Blender plugin engine gesture}{chapter.3}{}}
\@writefile{toc}{\contentsline {chapter}{\numberline {4}Blender plugin frames gesture}{17}{chapter.4}\protected@file@percent }
\@writefile{lof}{\addvspace {10\p@ }}
\@writefile{lot}{\addvspace {10\p@ }}
\newlabel{index:blender-plugin-frames-gesture}{{4}{17}{Blender plugin frames gesture}{chapter.4}{}}
\@writefile{toc}{\contentsline {chapter}{\numberline {5}Blender plugin texts features}{19}{chapter.5}\protected@file@percent }
\@writefile{lof}{\addvspace {10\p@ }}
\@writefile{lot}{\addvspace {10\p@ }}
\newlabel{index:blender-plugin-texts-features}{{5}{19}{Blender plugin texts features}{chapter.5}{}}
\@writefile{toc}{\contentsline {chapter}{\numberline {6}Blender plugin booleans features}{21}{chapter.6}\protected@file@percent }
\@writefile{lof}{\addvspace {10\p@ }}
\@writefile{lot}{\addvspace {10\p@ }}
\newlabel{index:blender-plugin-booleans-features}{{6}{21}{Blender plugin booleans features}{chapter.6}{}}
\@writefile{toc}{\contentsline {chapter}{\numberline {7}Blender plugin Widget dropdown}{23}{chapter.7}\protected@file@percent }
\@writefile{lof}{\addvspace {10\p@ }}
\@writefile{lot}{\addvspace {10\p@ }}
\newlabel{index:blender-plugin-widget-dropdown}{{7}{23}{Blender plugin Widget dropdown}{chapter.7}{}}
\@writefile{toc}{\contentsline {chapter}{\numberline {8}Blender plugin Widget spinner}{25}{chapter.8}\protected@file@percent }
\@writefile{lof}{\addvspace {10\p@ }}
\@writefile{lot}{\addvspace {10\p@ }}
\newlabel{index:blender-plugin-widget-spinner}{{8}{25}{Blender plugin Widget spinner}{chapter.8}{}}
\@writefile{toc}{\contentsline {chapter}{\numberline {9}Blender plugin Widget color}{27}{chapter.9}\protected@file@percent }
\@writefile{lof}{\addvspace {10\p@ }}
\@writefile{lot}{\addvspace {10\p@ }}
\newlabel{index:blender-plugin-widget-color}{{9}{27}{Blender plugin Widget color}{chapter.9}{}}
\@writefile{toc}{\contentsline {chapter}{\numberline {10}Blender plugin Widget file}{29}{chapter.10}\protected@file@percent }
\@writefile{lof}{\addvspace {10\p@ }}
\@writefile{lot}{\addvspace {10\p@ }}
\newlabel{index:blender-plugin-widget-file}{{10}{29}{Blender plugin Widget file}{chapter.10}{}}
\@writefile{toc}{\contentsline {chapter}{\numberline {11}Blender plugin Widget font}{31}{chapter.11}\protected@file@percent }
\@writefile{lof}{\addvspace {10\p@ }}
\@writefile{lot}{\addvspace {10\p@ }}
\newlabel{index:blender-plugin-widget-font}{{11}{31}{Blender plugin Widget font}{chapter.11}{}}
\@writefile{toc}{\contentsline {chapter}{\numberline {12}Blender plugin Widget picture}{33}{chapter.12}\protected@file@percent }
\@writefile{lof}{\addvspace {10\p@ }}
\@writefile{lot}{\addvspace {10\p@ }}
\newlabel{index:blender-plugin-widget-picture}{{12}{33}{Blender plugin Widget picture}{chapter.12}{}}
\@writefile{toc}{\contentsline {chapter}{\numberline {13}Blender plugin Widget sound}{35}{chapter.13}\protected@file@percent }
\@writefile{lof}{\addvspace {10\p@ }}
\@writefile{lot}{\addvspace {10\p@ }}
\newlabel{index:blender-plugin-widget-sound}{{13}{35}{Blender plugin Widget sound}{chapter.13}{}}
\@writefile{toc}{\contentsline {chapter}{\numberline {14}Blender plugin Widget movie}{37}{chapter.14}\protected@file@percent }
\@writefile{lof}{\addvspace {10\p@ }}
\@writefile{lot}{\addvspace {10\p@ }}
\newlabel{index:blender-plugin-widget-movie}{{14}{37}{Blender plugin Widget movie}{chapter.14}{}}
\@writefile{toc}{\contentsline {chapter}{\numberline {15}Python scripts gestures Animated 3D plugin}{39}{chapter.15}\protected@file@percent }
\@writefile{lof}{\addvspace {10\p@ }}
\@writefile{lot}{\addvspace {10\p@ }}
\newlabel{index:python-scripts-gestures-animated-3d-plugin}{{15}{39}{Python scripts gestures Animated 3D plugin}{chapter.15}{}}
\@writefile{toc}{\contentsline {section}{\numberline {15.1}Debuggin features}{39}{section.15.1}\protected@file@percent }
\newlabel{index:debuggin-features}{{15.1}{39}{Debuggin features}{section.15.1}{}}
\@writefile{toc}{\contentsline {section}{\numberline {15.2}Blender features}{41}{section.15.2}\protected@file@percent }
\newlabel{index:blender-features}{{15.2}{41}{Blender features}{section.15.2}{}}
\@writefile{toc}{\contentsline {chapter}{\numberline {16}Modules OpenShot Animated 3D Title plugins}{43}{chapter.16}\protected@file@percent }
\@writefile{lof}{\addvspace {10\p@ }}
\@writefile{lot}{\addvspace {10\p@ }}
\newlabel{index:module-windows.animated_title}{{16}{43}{Modules OpenShot Animated 3D Title plugins}{chapter.16}{}}
\newlabel{index:modules-openshot-animated-3d-title-plugins}{{16}{43}{Modules OpenShot Animated 3D Title plugins}{chapter.16}{}}
\@writefile{toc}{\contentsline {section}{\numberline {16.1}The \sphinxstyleliteralintitle {\sphinxupquote {animated\_title}} module}{43}{section.16.1}\protected@file@percent }
\newlabel{index:the-animated-title-module}{{16.1}{43}{The \sphinxstyleliteralintitle {\sphinxupquote {animated\_title}} module}{section.16.1}{}}
\newlabel{index:module-windows.controlers.renders_worker}{{16.1}{43}{The \sphinxstyleliteralintitle {\sphinxupquote {animated\_title}} module}{section*.3}{}}
\@writefile{toc}{\contentsline {section}{\numberline {16.2}The \sphinxstyleliteralintitle {\sphinxupquote {renders\_worker}} module}{43}{section.16.2}\protected@file@percent }
\newlabel{index:the-renders-worker-module}{{16.2}{43}{The \sphinxstyleliteralintitle {\sphinxupquote {renders\_worker}} module}{section.16.2}{}}
\newlabel{index:module-windows.models.renders_model}{{16.2}{43}{The \sphinxstyleliteralintitle {\sphinxupquote {renders\_worker}} module}{section*.4}{}}
\@writefile{toc}{\contentsline {section}{\numberline {16.3}The \sphinxstyleliteralintitle {\sphinxupquote {renders\_model}} module}{44}{section.16.3}\protected@file@percent }
\newlabel{index:the-renders-model-module}{{16.3}{44}{The \sphinxstyleliteralintitle {\sphinxupquote {renders\_model}} module}{section.16.3}{}}
\newlabel{index:module-windows.views.renders_plugins_views}{{16.3}{44}{The \sphinxstyleliteralintitle {\sphinxupquote {renders\_model}} module}{section*.5}{}}
\@writefile{toc}{\contentsline {section}{\numberline {16.4}The \sphinxstyleliteralintitle {\sphinxupquote {renders\_plugins\_views}} module}{44}{section.16.4}\protected@file@percent }
\newlabel{index:the-renders-plugins-views-module}{{16.4}{44}{The \sphinxstyleliteralintitle {\sphinxupquote {renders\_plugins\_views}} module}{section.16.4}{}}
\newlabel{index:module-windows.views.renders_config_widgets}{{16.4}{44}{The \sphinxstyleliteralintitle {\sphinxupquote {renders\_plugins\_views}} module}{section*.6}{}}
\@writefile{toc}{\contentsline {section}{\numberline {16.5}The \sphinxstyleliteralintitle {\sphinxupquote {renders\_config\_widgets}} module}{45}{section.16.5}\protected@file@percent }
\newlabel{index:the-renders-config-widgets-module}{{16.5}{45}{The \sphinxstyleliteralintitle {\sphinxupquote {renders\_config\_widgets}} module}{section.16.5}{}}
\@writefile{toc}{\contentsline {chapter}{\numberline {17}Classes OpenShot Animated 3D Title plugins}{47}{chapter.17}\protected@file@percent }
\@writefile{lof}{\addvspace {10\p@ }}
\@writefile{lot}{\addvspace {10\p@ }}
\newlabel{index:classes-openshot-animated-3d-title-plugins}{{17}{47}{Classes OpenShot Animated 3D Title plugins}{chapter.17}{}}
\@writefile{toc}{\contentsline {section}{\numberline {17.1}Class Manager Animated 3D Title plugins}{47}{section.17.1}\protected@file@percent }
\newlabel{index:class-manager-animated-3d-title-plugins}{{17.1}{47}{Class Manager Animated 3D Title plugins}{section.17.1}{}}
\newlabel{index:windows.animated_title.Animated3DTitleManager}{{17.1}{47}{Class Manager Animated 3D Title plugins}{section*.7}{}}
\newlabel{index:windows.animated_title.Animated3DTitleManager.add_file}{{17.1}{47}{Class Manager Animated 3D Title plugins}{section*.8}{}}
\newlabel{index:windows.animated_title.Animated3DTitleManager.close}{{17.1}{47}{Class Manager Animated 3D Title plugins}{section*.9}{}}
\newlabel{index:windows.animated_title.Animated3DTitleManager.error_set_version}{{17.1}{47}{Class Manager Animated 3D Title plugins}{section*.10}{}}
\newlabel{index:windows.animated_title.Animated3DTitleManager.error_with_blender}{{17.1}{48}{Class Manager Animated 3D Title plugins}{section*.11}{}}
\newlabel{index:windows.animated_title.Animated3DTitleManager.get_plugins}{{17.1}{48}{Class Manager Animated 3D Title plugins}{section*.12}{}}
\newlabel{index:windows.animated_title.Animated3DTitleManager.set_blender_version}{{17.1}{48}{Class Manager Animated 3D Title plugins}{section*.13}{}}
\newlabel{index:windows.animated_title.Animated3DTitleManager.show}{{17.1}{48}{Class Manager Animated 3D Title plugins}{section*.14}{}}
\@writefile{toc}{\contentsline {section}{\numberline {17.2}Classes Controlers Animated 3D Title plugins}{48}{section.17.2}\protected@file@percent }
\newlabel{index:classes-controlers-animated-3d-title-plugins}{{17.2}{48}{Classes Controlers Animated 3D Title plugins}{section.17.2}{}}
\newlabel{index:windows.controlers.threads_worker.ThreadsManager}{{17.2}{48}{Classes Controlers Animated 3D Title plugins}{section*.15}{}}
\newlabel{index:windows.controlers.threads_worker.ThreadsManager.adding_process_render_manager}{{17.2}{49}{Classes Controlers Animated 3D Title plugins}{section*.16}{}}
\newlabel{index:windows.controlers.threads_worker.ThreadsManager.close}{{17.2}{49}{Classes Controlers Animated 3D Title plugins}{section*.17}{}}
\newlabel{index:windows.controlers.threads_worker.ThreadsManager.execute_function}{{17.2}{49}{Classes Controlers Animated 3D Title plugins}{section*.18}{}}
\newlabel{index:windows.controlers.threads_worker.ThreadsManager.execute_process}{{17.2}{49}{Classes Controlers Animated 3D Title plugins}{section*.19}{}}
\newlabel{index:windows.controlers.threads_worker.ThreadsManager.get_current_worker}{{17.2}{49}{Classes Controlers Animated 3D Title plugins}{section*.20}{}}
\newlabel{index:windows.controlers.threads_worker.ThreadsManager.get_list_thread_pool}{{17.2}{49}{Classes Controlers Animated 3D Title plugins}{section*.21}{}}
\newlabel{index:windows.controlers.threads_worker.ThreadsManager.get_pool}{{17.2}{49}{Classes Controlers Animated 3D Title plugins}{section*.22}{}}
\newlabel{index:windows.controlers.threads_worker.ThreadsManager.kill_all_process}{{17.2}{50}{Classes Controlers Animated 3D Title plugins}{section*.23}{}}
\newlabel{index:windows.controlers.threads_worker.ThreadsManager.kill_process}{{17.2}{50}{Classes Controlers Animated 3D Title plugins}{section*.24}{}}
\newlabel{index:windows.controlers.threads_worker.ThreadsManager.suspend_process}{{17.2}{50}{Classes Controlers Animated 3D Title plugins}{section*.25}{}}
\newlabel{index:windows.controlers.threads_worker.ThreadsManager.terminate_process}{{17.2}{50}{Classes Controlers Animated 3D Title plugins}{section*.26}{}}
\newlabel{index:windows.controlers.threads_worker.ThreadsManager.terminate_render_plugin}{{17.2}{50}{Classes Controlers Animated 3D Title plugins}{section*.27}{}}
\newlabel{index:windows.controlers.threads_worker.ThreadsManager.thread_complete}{{17.2}{50}{Classes Controlers Animated 3D Title plugins}{section*.28}{}}
\newlabel{index:windows.controlers.threads_worker.ThreadsManager.thread_pool}{{17.2}{50}{Classes Controlers Animated 3D Title plugins}{section*.29}{}}
\newlabel{index:windows.controlers.threads_worker.ThreadsManager.thread_unpool}{{17.2}{50}{Classes Controlers Animated 3D Title plugins}{section*.30}{}}
\newlabel{index:windows.controlers.threads_worker.Worker}{{17.2}{50}{Classes Controlers Animated 3D Title plugins}{section*.31}{}}
\newlabel{index:windows.controlers.threads_worker.Worker.run}{{17.2}{52}{Classes Controlers Animated 3D Title plugins}{section*.32}{}}
\newlabel{index:windows.controlers.threads_worker.WorkerSignals}{{17.2}{52}{Classes Controlers Animated 3D Title plugins}{section*.33}{}}
\newlabel{index:windows.controlers.renders_worker.PluginsManager}{{17.2}{53}{Classes Controlers Animated 3D Title plugins}{section*.34}{}}
\newlabel{index:windows.controlers.renders_worker.PluginsManager.activePlugin}{{17.2}{54}{Classes Controlers Animated 3D Title plugins}{section*.35}{}}
\newlabel{index:windows.controlers.renders_worker.PluginsManager.close}{{17.2}{54}{Classes Controlers Animated 3D Title plugins}{section*.36}{}}
\newlabel{index:windows.controlers.renders_worker.PluginsManager.controlRenderPlugin}{{17.2}{54}{Classes Controlers Animated 3D Title plugins}{section*.37}{}}
\newlabel{index:windows.controlers.renders_worker.PluginsManager.createPlugin}{{17.2}{54}{Classes Controlers Animated 3D Title plugins}{section*.38}{}}
\newlabel{index:windows.controlers.renders_worker.PluginsManager.deletePlugin}{{17.2}{54}{Classes Controlers Animated 3D Title plugins}{section*.39}{}}
\newlabel{index:windows.controlers.renders_worker.PluginsManager.deleteWidgetsFromParametersPlugin}{{17.2}{54}{Classes Controlers Animated 3D Title plugins}{section*.40}{}}
\newlabel{index:windows.controlers.renders_worker.PluginsManager.delete_active_plugin_configuration}{{17.2}{54}{Classes Controlers Animated 3D Title plugins}{section*.41}{}}
\newlabel{index:windows.controlers.renders_worker.PluginsManager.generateFolder}{{17.2}{54}{Classes Controlers Animated 3D Title plugins}{section*.42}{}}
\newlabel{index:windows.controlers.renders_worker.PluginsManager.get_picture_preview}{{17.2}{54}{Classes Controlers Animated 3D Title plugins}{section*.43}{}}
\newlabel{index:windows.controlers.renders_worker.PluginsManager.get_render_plugin}{{17.2}{55}{Classes Controlers Animated 3D Title plugins}{section*.44}{}}
\newlabel{index:windows.controlers.renders_worker.PluginsManager.inactiveConfigurationPlugin}{{17.2}{55}{Classes Controlers Animated 3D Title plugins}{section*.45}{}}
\newlabel{index:windows.controlers.renders_worker.PluginsManager.inject_params}{{17.2}{55}{Classes Controlers Animated 3D Title plugins}{section*.46}{}}
\newlabel{index:windows.controlers.renders_worker.PluginsManager.previewPlugin}{{17.2}{55}{Classes Controlers Animated 3D Title plugins}{section*.47}{}}
\newlabel{index:windows.controlers.renders_worker.PluginsManager.remove_folder_plugin}{{17.2}{55}{Classes Controlers Animated 3D Title plugins}{section*.48}{}}
\newlabel{index:windows.controlers.renders_worker.PluginsManager.renderPlugin}{{17.2}{55}{Classes Controlers Animated 3D Title plugins}{section*.49}{}}
\newlabel{index:windows.controlers.renders_worker.ManageTaskViewPlugin}{{17.2}{55}{Classes Controlers Animated 3D Title plugins}{section*.50}{}}
\newlabel{index:windows.controlers.renders_worker.ManageTaskViewPlugin.activeWidgets}{{17.2}{56}{Classes Controlers Animated 3D Title plugins}{section*.51}{}}
\newlabel{index:windows.controlers.renders_worker.ManageTaskViewPlugin.createWidgets}{{17.2}{56}{Classes Controlers Animated 3D Title plugins}{section*.52}{}}
\newlabel{index:windows.controlers.renders_worker.ManageTaskViewPlugin.deleteWidgets}{{17.2}{56}{Classes Controlers Animated 3D Title plugins}{section*.53}{}}
\newlabel{index:windows.controlers.renders_worker.ManageTaskViewPlugin.inactiveWidgets}{{17.2}{56}{Classes Controlers Animated 3D Title plugins}{section*.54}{}}
\newlabel{index:windows.controlers.blender_worker.QBlenderEvent}{{17.2}{57}{Classes Controlers Animated 3D Title plugins}{section*.55}{}}
\newlabel{index:windows.controlers.blender_worker.BlenderRequest}{{17.2}{57}{Classes Controlers Animated 3D Title plugins}{section*.56}{}}
\newlabel{index:windows.controlers.blender_worker.BlenderRequest.start_render}{{17.2}{57}{Classes Controlers Animated 3D Title plugins}{section*.57}{}}
\@writefile{toc}{\contentsline {section}{\numberline {17.3}Classes Datas Models 3D Animated Title plugins}{58}{section.17.3}\protected@file@percent }
\newlabel{index:classes-datas-models-3d-animated-title-plugins}{{17.3}{58}{Classes Datas Models 3D Animated Title plugins}{section.17.3}{}}
\newlabel{index:windows.models.renders_model.ConfigurationPluginModel}{{17.3}{58}{Classes Datas Models 3D Animated Title plugins}{section*.58}{}}
\newlabel{index:windows.models.renders_model.ConfigurationPluginModel.get_defaults_plugin_params}{{17.3}{58}{Classes Datas Models 3D Animated Title plugins}{section*.59}{}}
\newlabel{index:windows.models.renders_model.ConfigurationPluginModel.get_openshot_params}{{17.3}{61}{Classes Datas Models 3D Animated Title plugins}{section*.60}{}}
\newlabel{index:windows.models.renders_model.ConfigurationPluginModel.get_project_params}{{17.3}{61}{Classes Datas Models 3D Animated Title plugins}{section*.61}{}}
\newlabel{index:windows.models.renders_model.ConfigurationPluginModel.get_xml_default_params}{{17.3}{61}{Classes Datas Models 3D Animated Title plugins}{section*.62}{}}
\newlabel{index:windows.models.renders_model.ListPluginsModel}{{17.3}{64}{Classes Datas Models 3D Animated Title plugins}{section*.63}{}}
\newlabel{index:windows.models.renders_model.ListPluginsModel.update_model}{{17.3}{65}{Classes Datas Models 3D Animated Title plugins}{section*.64}{}}
\newlabel{index:windows.models.renders_model.ParametersPluginModel}{{17.3}{65}{Classes Datas Models 3D Animated Title plugins}{section*.65}{}}
\newlabel{index:windows.models.renders_model.ParametersPluginModel.getConfigurationParameters}{{17.3}{65}{Classes Datas Models 3D Animated Title plugins}{section*.66}{}}
\newlabel{index:windows.models.renders_model.ParametersPluginModel.getRealsFiles}{{17.3}{65}{Classes Datas Models 3D Animated Title plugins}{section*.67}{}}
\@writefile{toc}{\contentsline {section}{\numberline {17.4}Classes Views Window Animated 3D Title plugins}{66}{section.17.4}\protected@file@percent }
\newlabel{index:classes-views-window-animated-3d-title-plugins}{{17.4}{66}{Classes Views Window Animated 3D Title plugins}{section.17.4}{}}
\newlabel{index:windows.views.renders_plugins_views.ListPluginsView}{{17.4}{66}{Classes Views Window Animated 3D Title plugins}{section*.68}{}}
\newlabel{index:windows.views.renders_plugins_views.ListPluginsView.currentChanged}{{17.4}{66}{Classes Views Window Animated 3D Title plugins}{section*.69}{}}
\newlabel{index:windows.views.renders_plugins_views.RendersPluginsViews}{{17.4}{66}{Classes Views Window Animated 3D Title plugins}{section*.70}{}}
\newlabel{index:windows.views.renders_plugins_views.RendersPluginsViews.activeConfigurationPlugin}{{17.4}{67}{Classes Views Window Animated 3D Title plugins}{section*.71}{}}
\newlabel{index:windows.views.renders_plugins_views.RendersPluginsViews.btnRefresh_clicked}{{17.4}{67}{Classes Views Window Animated 3D Title plugins}{section*.72}{}}
\newlabel{index:windows.views.renders_plugins_views.RendersPluginsViews.createControlConfigurationPlugin}{{17.4}{67}{Classes Views Window Animated 3D Title plugins}{section*.73}{}}
\newlabel{index:windows.views.renders_plugins_views.RendersPluginsViews.disable_interface_preview}{{17.4}{67}{Classes Views Window Animated 3D Title plugins}{section*.74}{}}
\newlabel{index:windows.views.renders_plugins_views.RendersPluginsViews.enable_interface_preview}{{17.4}{68}{Classes Views Window Animated 3D Title plugins}{section*.75}{}}
\newlabel{index:windows.views.renders_plugins_views.RendersPluginsViews.get_3d_plugins_list}{{17.4}{68}{Classes Views Window Animated 3D Title plugins}{section*.76}{}}
\newlabel{index:windows.views.renders_plugins_views.RendersPluginsViews.hideConfigPluginWidget}{{17.4}{68}{Classes Views Window Animated 3D Title plugins}{section*.77}{}}
\newlabel{index:windows.views.renders_plugins_views.RendersPluginsViews.refresh_list_plugin_view}{{17.4}{68}{Classes Views Window Animated 3D Title plugins}{section*.78}{}}
\newlabel{index:windows.views.renders_plugins_views.RendersPluginsViews.reject}{{17.4}{68}{Classes Views Window Animated 3D Title plugins}{section*.79}{}}
\newlabel{index:windows.views.renders_plugins_views.RendersPluginsViews.removeControlConfigurationPlugin}{{17.4}{68}{Classes Views Window Animated 3D Title plugins}{section*.80}{}}
\newlabel{index:windows.views.renders_plugins_views.RendersPluginsViews.setCountPreviewControl}{{17.4}{68}{Classes Views Window Animated 3D Title plugins}{section*.81}{}}
\newlabel{index:windows.views.renders_plugins_views.RendersPluginsViews.setLabelPreviewControl}{{17.4}{68}{Classes Views Window Animated 3D Title plugins}{section*.82}{}}
\newlabel{index:windows.views.renders_plugins_views.RendersPluginsViews.setPreviewPicture}{{17.4}{68}{Classes Views Window Animated 3D Title plugins}{section*.83}{}}
\newlabel{index:windows.views.renders_plugins_views.RendersPluginsViews.setProgessRenderControl}{{17.4}{68}{Classes Views Window Animated 3D Title plugins}{section*.84}{}}
\newlabel{index:windows.views.renders_plugins_views.RendersPluginsViews.showConfigPluginWidget}{{17.4}{68}{Classes Views Window Animated 3D Title plugins}{section*.85}{}}
\newlabel{index:windows.views.renders_plugins_views.RendersPluginsViews.sliderPreview_sliderReleased}{{17.4}{68}{Classes Views Window Animated 3D Title plugins}{section*.86}{}}
\newlabel{index:windows.views.renders_plugins_views.RendersPluginsViews.sliderPreview_valueChanged}{{17.4}{68}{Classes Views Window Animated 3D Title plugins}{section*.87}{}}
\newlabel{index:windows.views.renders_plugins_views.ManagerPanelPluginsView}{{17.4}{68}{Classes Views Window Animated 3D Title plugins}{section*.88}{}}
\newlabel{index:windows.views.renders_plugins_views.ManagerPanelPluginsView.addTaskManagerToPlugin}{{17.4}{68}{Classes Views Window Animated 3D Title plugins}{section*.89}{}}
\newlabel{index:windows.views.renders_plugins_views.ManagerPanelPluginsView.removeWidgetsFromConfigurationPluginView}{{17.4}{69}{Classes Views Window Animated 3D Title plugins}{section*.90}{}}
\newlabel{index:windows.views.renders_plugins_views.TaskManagerPluginView}{{17.4}{69}{Classes Views Window Animated 3D Title plugins}{section*.91}{}}
\newlabel{index:windows.views.renders_plugins_views.TaskManagerPluginView.clear_buttons}{{17.4}{70}{Classes Views Window Animated 3D Title plugins}{section*.92}{}}
\newlabel{index:windows.views.renders_plugins_views.TaskManagerPluginView.state_edit}{{17.4}{70}{Classes Views Window Animated 3D Title plugins}{section*.93}{}}
\newlabel{index:windows.views.renders_plugins_views.TaskManagerPluginView.state_execute_render}{{17.4}{70}{Classes Views Window Animated 3D Title plugins}{section*.94}{}}
\newlabel{index:windows.views.renders_plugins_views.TaskManagerPluginView.state_pause_render}{{17.4}{70}{Classes Views Window Animated 3D Title plugins}{section*.95}{}}
\newlabel{index:windows.views.renders_plugins_views.TaskManagerPluginView.state_render}{{17.4}{71}{Classes Views Window Animated 3D Title plugins}{section*.96}{}}
\newlabel{index:windows.views.renders_plugins_views.TaskManagerPluginView.state_renderedit}{{17.4}{71}{Classes Views Window Animated 3D Title plugins}{section*.97}{}}
\newlabel{index:windows.views.renders_plugins_views.TaskManagerPluginView.state_waitconf}{{17.4}{71}{Classes Views Window Animated 3D Title plugins}{section*.98}{}}
\@writefile{toc}{\contentsline {section}{\numberline {17.5}Classes Views Configurations Animated 3D Title plugin}{71}{section.17.5}\protected@file@percent }
\newlabel{index:classes-views-configurations-animated-3d-title-plugin}{{17.5}{71}{Classes Views Configurations Animated 3D Title plugin}{section.17.5}{}}
\newlabel{index:windows.views.renders_config_widgets.CreateWidgetsParametersRenderPlugin}{{17.5}{71}{Classes Views Configurations Animated 3D Title plugin}{section*.99}{}}
\newlabel{index:windows.views.renders_config_widgets.BlenderEnginesWidget}{{17.5}{72}{Classes Views Configurations Animated 3D Title plugin}{section*.100}{}}
\newlabel{index:windows.views.renders_config_widgets.BlenderEnginesWidget.render_index_changed}{{17.5}{72}{Classes Views Configurations Animated 3D Title plugin}{section*.101}{}}
\newlabel{index:windows.views.renders_config_widgets.BlenderEnginesWidget.update_widget}{{17.5}{72}{Classes Views Configurations Animated 3D Title plugin}{section*.102}{}}
\newlabel{index:windows.views.renders_config_widgets.BooleanWidget}{{17.5}{73}{Classes Views Configurations Animated 3D Title plugin}{section*.103}{}}
\newlabel{index:windows.views.renders_config_widgets.BooleanWidget.boolean_changed}{{17.5}{73}{Classes Views Configurations Animated 3D Title plugin}{section*.104}{}}
\newlabel{index:windows.views.renders_config_widgets.BooleanWidget.update_widget}{{17.5}{73}{Classes Views Configurations Animated 3D Title plugin}{section*.105}{}}
\newlabel{index:windows.views.renders_config_widgets.BooleanGroupWidget}{{17.5}{74}{Classes Views Configurations Animated 3D Title plugin}{section*.106}{}}
\newlabel{index:windows.views.renders_config_widgets.ColorWidget}{{17.5}{74}{Classes Views Configurations Animated 3D Title plugin}{section*.107}{}}
\newlabel{index:windows.views.renders_config_widgets.ColorWidget.color_button_clicked}{{17.5}{75}{Classes Views Configurations Animated 3D Title plugin}{section*.108}{}}
\newlabel{index:windows.views.renders_config_widgets.DropdownWidget}{{17.5}{75}{Classes Views Configurations Animated 3D Title plugin}{section*.109}{}}
\newlabel{index:windows.views.renders_config_widgets.DropdownWidget.dropdown_index_changed}{{17.5}{75}{Classes Views Configurations Animated 3D Title plugin}{section*.110}{}}
\newlabel{index:windows.views.renders_config_widgets.FileWidget}{{17.5}{75}{Classes Views Configurations Animated 3D Title plugin}{section*.111}{}}
\newlabel{index:windows.views.renders_config_widgets.FileWidget.file_index_Activated}{{17.5}{76}{Classes Views Configurations Animated 3D Title plugin}{section*.112}{}}
\newlabel{index:windows.views.renders_config_widgets.FontWidget}{{17.5}{76}{Classes Views Configurations Animated 3D Title plugin}{section*.113}{}}
\newlabel{index:windows.views.renders_config_widgets.FontWidget.font_index_Activated}{{17.5}{76}{Classes Views Configurations Animated 3D Title plugin}{section*.114}{}}
\newlabel{index:windows.views.renders_config_widgets.GroupWidget}{{17.5}{76}{Classes Views Configurations Animated 3D Title plugin}{section*.115}{}}
\newlabel{index:windows.views.renders_config_widgets.GroupWidget.group_changed}{{17.5}{77}{Classes Views Configurations Animated 3D Title plugin}{section*.116}{}}
\newlabel{index:windows.views.renders_config_widgets.GroupWidget.update_widget}{{17.5}{77}{Classes Views Configurations Animated 3D Title plugin}{section*.117}{}}
\newlabel{index:windows.views.renders_config_widgets.LabelWidget}{{17.5}{77}{Classes Views Configurations Animated 3D Title plugin}{section*.118}{}}
\newlabel{index:windows.views.renders_config_widgets.MovieWidget}{{17.5}{78}{Classes Views Configurations Animated 3D Title plugin}{section*.119}{}}
\newlabel{index:windows.views.renders_config_widgets.MovieWidget.movie_index_Activated}{{17.5}{78}{Classes Views Configurations Animated 3D Title plugin}{section*.120}{}}
\newlabel{index:windows.views.renders_config_widgets.MultilineWidget}{{17.5}{78}{Classes Views Configurations Animated 3D Title plugin}{section*.121}{}}
\newlabel{index:windows.views.renders_config_widgets.MultilineWidget.text_value_changed}{{17.5}{79}{Classes Views Configurations Animated 3D Title plugin}{section*.122}{}}
\newlabel{index:windows.views.renders_config_widgets.PictureWidget}{{17.5}{79}{Classes Views Configurations Animated 3D Title plugin}{section*.123}{}}
\newlabel{index:windows.views.renders_config_widgets.PictureWidget.picture_index_Activated}{{17.5}{79}{Classes Views Configurations Animated 3D Title plugin}{section*.124}{}}
\newlabel{index:windows.views.renders_config_widgets.RangeFramesWidget}{{17.5}{79}{Classes Views Configurations Animated 3D Title plugin}{section*.125}{}}
\newlabel{index:windows.views.renders_config_widgets.RangeFramesWidget.getListEndStepSlide}{{17.5}{80}{Classes Views Configurations Animated 3D Title plugin}{section*.126}{}}
\newlabel{index:windows.views.renders_config_widgets.RangeFramesWidget.getListStartStepSlide}{{17.5}{80}{Classes Views Configurations Animated 3D Title plugin}{section*.127}{}}
\newlabel{index:windows.views.renders_config_widgets.RangeFramesWidget.on_change_value_slider_end_range}{{17.5}{80}{Classes Views Configurations Animated 3D Title plugin}{section*.128}{}}
\newlabel{index:windows.views.renders_config_widgets.RangeFramesWidget.on_change_value_slider_start_range}{{17.5}{80}{Classes Views Configurations Animated 3D Title plugin}{section*.129}{}}
\newlabel{index:windows.views.renders_config_widgets.RangeFramesWidget.resizeEvent}{{17.5}{80}{Classes Views Configurations Animated 3D Title plugin}{section*.130}{}}
\newlabel{index:windows.views.renders_config_widgets.RangeFramesWidget.setListEndStepSlide}{{17.5}{80}{Classes Views Configurations Animated 3D Title plugin}{section*.131}{}}
\newlabel{index:windows.views.renders_config_widgets.RangeFramesWidget.setListStartStepSlide}{{17.5}{80}{Classes Views Configurations Animated 3D Title plugin}{section*.132}{}}
\newlabel{index:windows.views.renders_config_widgets.SoundWidget}{{17.5}{80}{Classes Views Configurations Animated 3D Title plugin}{section*.133}{}}
\newlabel{index:windows.views.renders_config_widgets.SoundWidget.sound_index_Activated}{{17.5}{81}{Classes Views Configurations Animated 3D Title plugin}{section*.134}{}}
\newlabel{index:windows.views.renders_config_widgets.SpinnerDoubleWidget}{{17.5}{81}{Classes Views Configurations Animated 3D Title plugin}{section*.135}{}}
\newlabel{index:windows.views.renders_config_widgets.SpinnerDoubleWidget.spinner_value_changed}{{17.5}{81}{Classes Views Configurations Animated 3D Title plugin}{section*.136}{}}
\newlabel{index:windows.views.renders_config_widgets.SpinnerIntWidget}{{17.5}{81}{Classes Views Configurations Animated 3D Title plugin}{section*.137}{}}
\newlabel{index:windows.views.renders_config_widgets.SpinnerIntWidget.spinner_value_changed}{{17.5}{82}{Classes Views Configurations Animated 3D Title plugin}{section*.138}{}}
\newlabel{index:windows.views.renders_config_widgets.SpinnerWidget}{{17.5}{82}{Classes Views Configurations Animated 3D Title plugin}{section*.139}{}}
\newlabel{index:windows.views.renders_config_widgets.TextWidget}{{17.5}{82}{Classes Views Configurations Animated 3D Title plugin}{section*.140}{}}
\newlabel{index:windows.views.renders_config_widgets.TextWidget.text_value_changed}{{17.5}{82}{Classes Views Configurations Animated 3D Title plugin}{section*.141}{}}
\newlabel{index:windows.views.renders_config_widgets.OpenFileConfig}{{17.5}{82}{Classes Views Configurations Animated 3D Title plugin}{section*.142}{}}
\newlabel{index:windows.views.renders_config_widgets.OpenFileConfig.getRealsFiles}{{17.5}{83}{Classes Views Configurations Animated 3D Title plugin}{section*.143}{}}
\newlabel{index:windows.views.renders_config_widgets.OpenFontFile}{{17.5}{83}{Classes Views Configurations Animated 3D Title plugin}{section*.144}{}}
\newlabel{index:windows.views.renders_config_widgets.OpenFontFile.chooseFont}{{17.5}{84}{Classes Views Configurations Animated 3D Title plugin}{section*.145}{}}
\newlabel{index:windows.views.renders_config_widgets.OpenFontFile.chooseFontFromList}{{17.5}{84}{Classes Views Configurations Animated 3D Title plugin}{section*.146}{}}
\newlabel{index:windows.views.renders_config_widgets.OpenFontFile.closeEvent}{{17.5}{84}{Classes Views Configurations Animated 3D Title plugin}{section*.147}{}}
\newlabel{index:windows.views.renders_config_widgets.OpenFontFile.getFileFont}{{17.5}{84}{Classes Views Configurations Animated 3D Title plugin}{section*.148}{}}
\newlabel{index:windows.views.renders_config_widgets.OpenFontFile.importSystemFonts}{{17.5}{84}{Classes Views Configurations Animated 3D Title plugin}{section*.149}{}}
\newlabel{index:windows.views.renders_config_widgets.OpenFontFile.initUI}{{17.5}{85}{Classes Views Configurations Animated 3D Title plugin}{section*.150}{}}
\newlabel{index:windows.views.renders_config_widgets.OpenFontFile.openFontFile}{{17.5}{85}{Classes Views Configurations Animated 3D Title plugin}{section*.151}{}}
\newlabel{index:windows.views.renders_config_widgets.OpenFontFile.previewFont}{{17.5}{85}{Classes Views Configurations Animated 3D Title plugin}{section*.152}{}}
\newlabel{index:windows.views.renders_config_widgets.OpenFontFile.reject}{{17.5}{85}{Classes Views Configurations Animated 3D Title plugin}{section*.153}{}}
\newlabel{index:windows.views.renders_config_widgets.OpenFontFile.stylePreviewFont}{{17.5}{85}{Classes Views Configurations Animated 3D Title plugin}{section*.154}{}}
\newlabel{index:windows.views.renders_config_widgets.OpenFontFile.updateFontsList}{{17.5}{85}{Classes Views Configurations Animated 3D Title plugin}{section*.155}{}}
\newlabel{index:windows.views.renders_config_widgets.OpenMovieFile}{{17.5}{85}{Classes Views Configurations Animated 3D Title plugin}{section*.156}{}}
\newlabel{index:windows.views.renders_config_widgets.OpenMovieFile.addControls}{{17.5}{87}{Classes Views Configurations Animated 3D Title plugin}{section*.157}{}}
\newlabel{index:windows.views.renders_config_widgets.OpenMovieFile.changeVolume}{{17.5}{87}{Classes Views Configurations Animated 3D Title plugin}{section*.158}{}}
\newlabel{index:windows.views.renders_config_widgets.OpenMovieFile.chooseMovie}{{17.5}{87}{Classes Views Configurations Animated 3D Title plugin}{section*.159}{}}
\newlabel{index:windows.views.renders_config_widgets.OpenMovieFile.clearhandler}{{17.5}{87}{Classes Views Configurations Animated 3D Title plugin}{section*.160}{}}
\newlabel{index:windows.views.renders_config_widgets.OpenMovieFile.closeEvent}{{17.5}{87}{Classes Views Configurations Animated 3D Title plugin}{section*.161}{}}
\newlabel{index:windows.views.renders_config_widgets.OpenMovieFile.durationChanged}{{17.5}{87}{Classes Views Configurations Animated 3D Title plugin}{section*.162}{}}
\newlabel{index:windows.views.renders_config_widgets.OpenMovieFile.getFileMovie}{{17.5}{87}{Classes Views Configurations Animated 3D Title plugin}{section*.163}{}}
\newlabel{index:windows.views.renders_config_widgets.OpenMovieFile.initUI}{{17.5}{87}{Classes Views Configurations Animated 3D Title plugin}{section*.164}{}}
\newlabel{index:windows.views.renders_config_widgets.OpenMovieFile.movieChanged}{{17.5}{87}{Classes Views Configurations Animated 3D Title plugin}{section*.165}{}}
\newlabel{index:windows.views.renders_config_widgets.OpenMovieFile.openFile}{{17.5}{87}{Classes Views Configurations Animated 3D Title plugin}{section*.166}{}}
\newlabel{index:windows.views.renders_config_widgets.OpenMovieFile.playStateChanged}{{17.5}{87}{Classes Views Configurations Animated 3D Title plugin}{section*.167}{}}
\newlabel{index:windows.views.renders_config_widgets.OpenMovieFile.playhandler}{{17.5}{87}{Classes Views Configurations Animated 3D Title plugin}{section*.168}{}}
\newlabel{index:windows.views.renders_config_widgets.OpenMovieFile.positionChanged}{{17.5}{87}{Classes Views Configurations Animated 3D Title plugin}{section*.169}{}}
\newlabel{index:windows.views.renders_config_widgets.OpenMovieFile.setPosition}{{17.5}{87}{Classes Views Configurations Animated 3D Title plugin}{section*.170}{}}
\newlabel{index:windows.views.renders_config_widgets.OpenMovieFile.stophandler}{{17.5}{87}{Classes Views Configurations Animated 3D Title plugin}{section*.171}{}}
\newlabel{index:windows.views.renders_config_widgets.OpenSoundFile}{{17.5}{87}{Classes Views Configurations Animated 3D Title plugin}{section*.172}{}}
\newlabel{index:windows.views.renders_config_widgets.OpenSoundFile.addControls}{{17.5}{89}{Classes Views Configurations Animated 3D Title plugin}{section*.173}{}}
\newlabel{index:windows.views.renders_config_widgets.OpenSoundFile.changeVolume}{{17.5}{89}{Classes Views Configurations Animated 3D Title plugin}{section*.174}{}}
\newlabel{index:windows.views.renders_config_widgets.OpenSoundFile.chooseSong}{{17.5}{89}{Classes Views Configurations Animated 3D Title plugin}{section*.175}{}}
\newlabel{index:windows.views.renders_config_widgets.OpenSoundFile.clearhandler}{{17.5}{89}{Classes Views Configurations Animated 3D Title plugin}{section*.176}{}}
\newlabel{index:windows.views.renders_config_widgets.OpenSoundFile.closeEvent}{{17.5}{89}{Classes Views Configurations Animated 3D Title plugin}{section*.177}{}}
\newlabel{index:windows.views.renders_config_widgets.OpenSoundFile.durationChanged}{{17.5}{89}{Classes Views Configurations Animated 3D Title plugin}{section*.178}{}}
\newlabel{index:windows.views.renders_config_widgets.OpenSoundFile.getFileSound}{{17.5}{89}{Classes Views Configurations Animated 3D Title plugin}{section*.179}{}}
\newlabel{index:windows.views.renders_config_widgets.OpenSoundFile.initUI}{{17.5}{89}{Classes Views Configurations Animated 3D Title plugin}{section*.180}{}}
\newlabel{index:windows.views.renders_config_widgets.OpenSoundFile.openFile}{{17.5}{89}{Classes Views Configurations Animated 3D Title plugin}{section*.181}{}}
\newlabel{index:windows.views.renders_config_widgets.OpenSoundFile.playStateChanged}{{17.5}{89}{Classes Views Configurations Animated 3D Title plugin}{section*.182}{}}
\newlabel{index:windows.views.renders_config_widgets.OpenSoundFile.playhandler}{{17.5}{89}{Classes Views Configurations Animated 3D Title plugin}{section*.183}{}}
\newlabel{index:windows.views.renders_config_widgets.OpenSoundFile.positionChanged}{{17.5}{89}{Classes Views Configurations Animated 3D Title plugin}{section*.184}{}}
\newlabel{index:windows.views.renders_config_widgets.OpenSoundFile.setPosition}{{17.5}{89}{Classes Views Configurations Animated 3D Title plugin}{section*.185}{}}
\newlabel{index:windows.views.renders_config_widgets.OpenSoundFile.songChanged}{{17.5}{89}{Classes Views Configurations Animated 3D Title plugin}{section*.186}{}}
\newlabel{index:windows.views.renders_config_widgets.OpenSoundFile.stophandler}{{17.5}{89}{Classes Views Configurations Animated 3D Title plugin}{section*.187}{}}
\@writefile{toc}{\contentsline {chapter}{Python Module Index}{91}{section*.188}\protected@file@percent }
\@writefile{toc}{\contentsline {chapter}{Index}{93}{section*.189}\protected@file@percent }
\gdef \@abspage@last{103}
